{
  "project_info": {
    "project_number": "618666317128",
    "firebase_url": "https://android-apps-a2377.firebaseio.com",
    "project_id": "android-apps-a2377",
    "storage_bucket": "android-apps-a2377.appspot.com"
  },
  "client": [
    {
      "client_info": {
        "mobilesdk_app_id": "1:618666317128:android:1911bae6a5778032",
        "android_client_info": {
          "package_name": "com.cs.afrahcom"
        }
      },
      "oauth_client": [
        {
          "client_id": "618666317128-hje359rjc5b9ojujrue1h9vhve09boav.apps.googleusercontent.com",
          "client_type": 3
        }
      ],
      "api_key": [
        {
          "current_key": "AIzaSyAJArQiQWWQfrH5k9qbdwkjLqd5pAg6EY8"
        }
      ],
      "services": {
        "appinvite_service": {
          "other_platform_oauth_client": [
            {
              "client_id": "618666317128-hje359rjc5b9ojujrue1h9vhve09boav.apps.googleusercontent.com",
              "client_type": 3
            }
          ]
        }
      }
    },
    {
      "client_info": {
        "mobilesdk_app_id": "1:618666317128:android:eb8bf651790cb11b",
        "android_client_info": {
          "package_name": "com.cs.bcdriver"
        }
      },
      "oauth_client": [
        {
          "client_id": "618666317128-hje359rjc5b9ojujrue1h9vhve09boav.apps.googleusercontent.com",
          "client_type": 3
        }
      ],
      "api_key": [
        {
          "current_key": "AIzaSyAJArQiQWWQfrH5k9qbdwkjLqd5pAg6EY8"
        }
      ],
      "services": {
        "appinvite_service": {
          "other_platform_oauth_client": [
            {
              "client_id": "618666317128-hje359rjc5b9ojujrue1h9vhve09boav.apps.googleusercontent.com",
              "client_type": 3
            }
          ]
        }
      }
    },
    {
      "client_info": {
        "mobilesdk_app_id": "1:618666317128:android:8ab57c8603a03ab8",
        "android_client_info": {
          "package_name": "com.cs.billingpos"
        }
      },
      "oauth_client": [
        {
          "client_id": "618666317128-hje359rjc5b9ojujrue1h9vhve09boav.apps.googleusercontent.com",
          "client_type": 3
        }
      ],
      "api_key": [
        {
          "current_key": "AIzaSyAJArQiQWWQfrH5k9qbdwkjLqd5pAg6EY8"
        }
      ],
      "services": {
        "appinvite_service": {
          "other_platform_oauth_client": [
            {
              "client_id": "618666317128-hje359rjc5b9ojujrue1h9vhve09boav.apps.googleusercontent.com",
              "client_type": 3
            }
          ]
        }
      }
    },
    {
      "client_info": {
        "mobilesdk_app_id": "1:618666317128:android:827020b4d20c0db4",
        "android_client_info": {
          "package_name": "com.cs.boastedexpress"
        }
      },
      "oauth_client": [
        {
          "client_id": "618666317128-hje359rjc5b9ojujrue1h9vhve09boav.apps.googleusercontent.com",
          "client_type": 3
        }
      ],
      "api_key": [
        {
          "current_key": "AIzaSyAJArQiQWWQfrH5k9qbdwkjLqd5pAg6EY8"
        }
      ],
      "services": {
        "appinvite_service": {
          "other_platform_oauth_client": [
            {
              "client_id": "618666317128-hje359rjc5b9ojujrue1h9vhve09boav.apps.googleusercontent.com",
              "client_type": 3
            }
          ]
        }
      }
    },
    {
      "client_info": {
        "mobilesdk_app_id": "1:618666317128:android:f0dce5a830201fc8",
        "android_client_info": {
          "package_name": "com.cs.boudl"
        }
      },
      "oauth_client": [
        {
          "client_id": "618666317128-hje359rjc5b9ojujrue1h9vhve09boav.apps.googleusercontent.com",
          "client_type": 3
        }
      ],
      "api_key": [
        {
          "current_key": "AIzaSyAJArQiQWWQfrH5k9qbdwkjLqd5pAg6EY8"
        }
      ],
      "services": {
        "appinvite_service": {
          "other_platform_oauth_client": [
            {
              "client_id": "618666317128-hje359rjc5b9ojujrue1h9vhve09boav.apps.googleusercontent.com",
              "client_type": 3
            }
          ]
        }
      }
    },
    {
      "client_info": {
        "mobilesdk_app_id": "1:618666317128:android:8cd7d6cf03181b60",
        "android_client_info": {
          "package_name": "com.cs.checkclickuser"
        }
      },
      "oauth_client": [
        {
          "client_id": "618666317128-hje359rjc5b9ojujrue1h9vhve09boav.apps.googleusercontent.com",
          "client_type": 3
        }
      ],
      "api_key": [
        {
          "current_key": "AIzaSyAJArQiQWWQfrH5k9qbdwkjLqd5pAg6EY8"
        }
      ],
      "services": {
        "appinvite_service": {
          "other_platform_oauth_client": [
            {
              "client_id": "618666317128-hje359rjc5b9ojujrue1h9vhve09boav.apps.googleusercontent.com",
              "client_type": 3
            }
          ]
        }
      }
    },
    {
      "client_info": {
        "mobilesdk_app_id": "1:618666317128:android:58a58947c6311bb2",
        "android_client_info": {
          "package_name": "com.cs.checkclickvendor"
        }
      },
      "oauth_client": [
        {
          "client_id": "618666317128-hje359rjc5b9ojujrue1h9vhve09boav.apps.googleusercontent.com",
          "client_type": 3
        }
      ],
      "api_key": [
        {
          "current_key": "AIzaSyAJArQiQWWQfrH5k9qbdwkjLqd5pAg6EY8"
        }
      ],
      "services": {
        "appinvite_service": {
          "other_platform_oauth_client": [
            {
              "client_id": "618666317128-hje359rjc5b9ojujrue1h9vhve09boav.apps.googleusercontent.com",
              "client_type": 3
            }
          ]
        }
      }
    },
    {
      "client_info": {
        "mobilesdk_app_id": "1:618666317128:android:215a5d8677d4ec23",
        "android_client_info": {
          "package_name": "com.cs.chef"
        }
      },
      "oauth_client": [
        {
          "client_id": "618666317128-hje359rjc5b9ojujrue1h9vhve09boav.apps.googleusercontent.com",
          "client_type": 3
        }
      ],
      "api_key": [
        {
          "current_key": "AIzaSyAJArQiQWWQfrH5k9qbdwkjLqd5pAg6EY8"
        }
      ],
      "services": {
        "appinvite_service": {
          "other_platform_oauth_client": [
            {
              "client_id": "618666317128-hje359rjc5b9ojujrue1h9vhve09boav.apps.googleusercontent.com",
              "client_type": 3
            }
          ]
        }
      }
    },
    {
      "client_info": {
        "mobilesdk_app_id": "1:618666317128:android:fe8579e649823f24",
        "android_client_info": {
          "package_name": "com.cs.chefvenderapp"
        }
      },
      "oauth_client": [
        {
          "client_id": "618666317128-hje359rjc5b9ojujrue1h9vhve09boav.apps.googleusercontent.com",
          "client_type": 3
        }
      ],
      "api_key": [
        {
          "current_key": "AIzaSyAJArQiQWWQfrH5k9qbdwkjLqd5pAg6EY8"
        }
      ],
      "services": {
        "appinvite_service": {
          "other_platform_oauth_client": [
            {
              "client_id": "618666317128-hje359rjc5b9ojujrue1h9vhve09boav.apps.googleusercontent.com",
              "client_type": 3
            }
          ]
        }
      }
    },
    {
      "client_info": {
        "mobilesdk_app_id": "1:618666317128:android:fa5c3ef9e1dfcc18",
        "android_client_info": {
          "package_name": "com.cs.dajendriver"
        }
      },
      "oauth_client": [
        {
          "client_id": "618666317128-hje359rjc5b9ojujrue1h9vhve09boav.apps.googleusercontent.com",
          "client_type": 3
        }
      ],
      "api_key": [
        {
          "current_key": "AIzaSyAJArQiQWWQfrH5k9qbdwkjLqd5pAg6EY8"
        }
      ],
      "services": {
        "appinvite_service": {
          "other_platform_oauth_client": [
            {
              "client_id": "618666317128-hje359rjc5b9ojujrue1h9vhve09boav.apps.googleusercontent.com",
              "client_type": 3
            }
          ]
        }
      }
    },
    {
      "client_info": {
        "mobilesdk_app_id": "1:618666317128:android:562c52e5edc45ab2",
        "android_client_info": {
          "package_name": "com.cs.oregano"
        }
      },
      "oauth_client": [
        {
          "client_id": "618666317128-hje359rjc5b9ojujrue1h9vhve09boav.apps.googleusercontent.com",
          "client_type": 3
        }
      ],
      "api_key": [
        {
          "current_key": "AIzaSyAJArQiQWWQfrH5k9qbdwkjLqd5pAg6EY8"
        }
      ],
      "services": {
        "appinvite_service": {
          "other_platform_oauth_client": [
            {
              "client_id": "618666317128-hje359rjc5b9ojujrue1h9vhve09boav.apps.googleusercontent.com",
              "client_type": 3
            }
          ]
        }
      }
    },
    {
      "client_info": {
        "mobilesdk_app_id": "1:618666317128:android:f9316d1b5ea24e81",
        "android_client_info": {
          "package_name": "com.cs.oreganodriver"
        }
      },
      "oauth_client": [
        {
          "client_id": "618666317128-hje359rjc5b9ojujrue1h9vhve09boav.apps.googleusercontent.com",
          "client_type": 3
        }
      ],
      "api_key": [
        {
          "current_key": "AIzaSyAJArQiQWWQfrH5k9qbdwkjLqd5pAg6EY8"
        }
      ],
      "services": {
        "appinvite_service": {
          "other_platform_oauth_client": [
            {
              "client_id": "618666317128-hje359rjc5b9ojujrue1h9vhve09boav.apps.googleusercontent.com",
              "client_type": 3
            }
          ]
        }
      }
    },
    {
      "client_info": {
        "mobilesdk_app_id": "1:618666317128:android:ca6e8b28edc92a26",
        "android_client_info": {
          "package_name": "com.cs.samkracustomer"
        }
      },
      "oauth_client": [
        {
          "client_id": "618666317128-hje359rjc5b9ojujrue1h9vhve09boav.apps.googleusercontent.com",
          "client_type": 3
        }
      ],
      "api_key": [
        {
          "current_key": "AIzaSyAJArQiQWWQfrH5k9qbdwkjLqd5pAg6EY8"
        }
      ],
      "services": {
        "appinvite_service": {
          "other_platform_oauth_client": [
            {
              "client_id": "618666317128-hje359rjc5b9ojujrue1h9vhve09boav.apps.googleusercontent.com",
              "client_type": 3
            }
          ]
        }
      }
    },
    {
      "client_info": {
        "mobilesdk_app_id": "1:618666317128:android:076df2c8c4ccfd91",
        "android_client_info": {
          "package_name": "com.cs.samkraworkshop"
        }
      },
      "oauth_client": [
        {
          "client_id": "618666317128-hje359rjc5b9ojujrue1h9vhve09boav.apps.googleusercontent.com",
          "client_type": 3
        }
      ],
      "api_key": [
        {
          "current_key": "AIzaSyAJArQiQWWQfrH5k9qbdwkjLqd5pAg6EY8"
        }
      ],
      "services": {
        "appinvite_service": {
          "other_platform_oauth_client": [
            {
              "client_id": "618666317128-hje359rjc5b9ojujrue1h9vhve09boav.apps.googleusercontent.com",
              "client_type": 3
            }
          ]
        }
      }
    },
    {
      "client_info": {
        "mobilesdk_app_id": "1:618666317128:android:3652fcef01972879",
        "android_client_info": {
          "package_name": "com.cs.telepizzadriver"
        }
      },
      "oauth_client": [
        {
          "client_id": "618666317128-hje359rjc5b9ojujrue1h9vhve09boav.apps.googleusercontent.com",
          "client_type": 3
        }
      ],
      "api_key": [
        {
          "current_key": "AIzaSyAJArQiQWWQfrH5k9qbdwkjLqd5pAg6EY8"
        }
      ],
      "services": {
        "appinvite_service": {
          "other_platform_oauth_client": [
            {
              "client_id": "618666317128-hje359rjc5b9ojujrue1h9vhve09boav.apps.googleusercontent.com",
              "client_type": 3
            }
          ]
        }
      }
    },
    {
      "client_info": {
        "mobilesdk_app_id": "1:618666317128:android:5ccd6126eb405f96",
        "android_client_info": {
          "package_name": "com.example.cs.bxdriver"
        }
      },
      "oauth_client": [
        {
          "client_id": "618666317128-hje359rjc5b9ojujrue1h9vhve09boav.apps.googleusercontent.com",
          "client_type": 3
        }
      ],
      "api_key": [
        {
          "current_key": "AIzaSyAJArQiQWWQfrH5k9qbdwkjLqd5pAg6EY8"
        }
      ],
      "services": {
        "appinvite_service": {
          "other_platform_oauth_client": [
            {
              "client_id": "618666317128-hje359rjc5b9ojujrue1h9vhve09boav.apps.googleusercontent.com",
              "client_type": 3
            }
          ]
        }
      }
    }
  ],
  "configuration_version": "1"
}